<?php
/**
 * Car controller.
 *
 */
namespace RentCarBundle\Controller;

use Symfony\Component\HttpFoundation\Request;
use Symfony\Bundle\FrameworkBundle\Controller\Controller;

use RentCarBundle\Entity\Car;
use RentCarBundle\Form\CarType;

/**
 * Car controller.
 *
 */
class CarController extends Controller
{
    /**
     * Lists all Car entities.
     *
     */
    public function indexAction()
    {
        $em = $this->getDoctrine()->getManager();

        $cars = $em->getRepository('RentCarBundle:Car')->findAll();

        return $this->render('car/index.html.twig', array(
            'cars' => $cars,
        ));
    }

    /**
     * Creates a new Car entity.
     * @param Request $request request from form
     */
    public function newAction(Request $request)
    {
        $car = new Car();
        $form = $this->createForm('RentCarBundle\Form\CarType', $car);
        $form->handleRequest($request);

        if ($form->isSubmitted() && $form->isValid()) {
            $em = $this->getDoctrine()->getManager();
            $em->persist($car);
            $em->flush();

            return $this->redirectToRoute('car_show', array('id' => $car->getId()));
        }

        return $this->render('car/new.html.twig', array(
            'car' => $car,
            'form' => $form->createView(),
        ));
    }

    /**
     * Finds and displays a Car entity.
     * @param Car $car car to display
     *
     */
    public function showAction(Car $car)
    {
        $deleteForm = $this->createDeleteForm($car);

        return $this->render('car/show.html.twig', array(
            'car' => $car,
            'delete_form' => $deleteForm->createView(),
        ));
    }

    /**
     * Displays a form to edit an existing Car entity.
     * @param Request $request request from form
     * @param Car $car car to edit
     *
     */
    public function editAction(Request $request, Car $car)
    {
        $deleteForm = $this->createDeleteForm($car);
        $editForm = $this->createForm('RentCarBundle\Form\CarType', $car);
        $editForm->handleRequest($request);

        if ($editForm->isSubmitted() && $editForm->isValid()) {
            $em = $this->getDoctrine()->getManager();
            $em->persist($car);
            $em->flush();

            return $this->redirectToRoute('car_edit', array('id' => $car->getId()));
        }

        return $this->render('car/edit.html.twig', array(
            'car' => $car,
            'edit_form' => $editForm->createView(),
            'delete_form' => $deleteForm->createView(),
        ));
    }

    /**
     * Deletes a Car entity.
     * @param Request $request request from form
     * @param Car $car car to delete
     *
     */
    public function deleteAction(Request $request, Car $car)
    {
        $form = $this->createDeleteForm($car);
        $form->handleRequest($request);

        if ($form->isSubmitted() && $form->isValid()) {
            $em = $this->getDoctrine()->getManager();
            $em->remove($car);
            $em->flush();
        }

        return $this->redirectToRoute('car_index');
    }

    /**
     * Creates a form to delete a Car entity.
     *
     * @param Car $car The Car entity
     *
     * @return \Symfony\Component\Form\Form The form
     */
    private function createDeleteForm(Car $car)
    {
        return $this->createFormBuilder()
            ->setAction($this->generateUrl('car_delete', array('id' => $car->getId())))
            ->setMethod('DELETE')
            ->getForm()
        ;
    }
}

